24

5
Glenn McMahon
Theory John
Stephanie Liv
Michaels Lita
Hunter McMahon
1 2 4 3 5
5 2 4 1 3
4 2 1 3 5
2 4 5 1 3
5 2 1 4 3
4 3 5 1 2

4
Hardy Christian
Christian Stephanie
Jeff Hornswaggle
Shawn Hardy
4 2 1 3
4 3 1 2
3 2 1 4
1 4 3 2
4 1 3 2

3
Doe Liv
Michaels Alexa
Stephanie Triple H
3 1 2
1 3 2
3 2 1
1 3 2
1 3 2
3 1 2
1 3 2

5
Vince Theory
Smith Glenn
Morgan Aaron
McMahon McMahon
Shawn Hardy
5 2 3 4 1
5 3 1 4 2
4 1 3 2 5
2 3 1 4 5
4 5 1 3 2
2 3 1 4 5
2 1 4 5 3

3
Liv Triple H
Doe Aaron
Cena Lita
1 3 2
1 2 3
1 3 2
2 3 1
1 3 2

5
Doe Cena
Smith Alexa
Jeff AJ
AJ Cena
Jeff Alexa
3 5 2 4 1
2 5 4 1 3
3 1 4 5 2
4 5 3 1 2
4 1 5 3 2

5
Cena Smith
Liv Michaels
Jeff Lita
Michaels Hunter
Jeff AJ
5 4 3 2 1
3 5 1 2 4
5 3 4 1 2
5 3 1 4 2
2 4 5 3 1

4
Hardy Jose
Jose AJ
Edge AJ
John Lita
1 4 3 2
3 1 2 4
4 1 3 2
3 4 2 1
3 4 1 2
1 2 3 4
3 2 4 1

4
Aaron Doe
Alexa Shawn
Theory Hunter
Theory Theory
4 1 3 2
2 1 4 3
3 4 2 1
2 3 4 1
1 3 4 2

5
Aaron Shawn
Stephanie Shawn
Edge Jose
Christian Michaels
Hunter Hornswaggle
1 3 5 4 2
3 5 1 4 2
3 1 2 5 4
3 1 4 2 5
5 4 1 3 2

3
Jose Hunter
John Jose
Hunter Vince
2 3 1
3 1 2
3 2 1
3 2 1
3 2 1
2 3 1
3 2 1

4
Triple H Cena
Liv Hunter
Liv Shawn
Morgan Cena
3 2 1 4
4 2 3 1
2 1 4 3
4 3 2 1
2 3 4 1
1 3 4 2

4
Liv Jeff
Bliss Michaels
Glenn John
Hornswaggle Bliss
4 1 2 3
3 2 1 4
2 4 1 3
1 4 2 3
3 2 4 1
2 3 4 1

4
Edge McMahon
Vince McMahon
Michaels Lita
Adam Michaels
1 3 4 2
1 3 4 2
4 1 3 2
1 2 4 3
3 4 2 1
3 1 4 2
3 1 4 2

4
Bliss Triple H
McMahon Hardy
Adam Shawn
Hardy Doe
3 2 1 4
3 4 1 2
4 3 1 2
1 2 4 3
4 1 3 2
2 3 1 4

3
Hunter Hunter
Lita Stephanie
Cena Morgan
3 2 1
3 1 2
1 3 2
3 1 2
3 1 2

3
Doe AJ
Hornswaggle Edge
Aaron Alexa
2 3 1
1 2 3
1 3 2
3 1 2
3 1 2

5
Glenn Lita
Cena Smith
Cena AJ
Edge Glenn
Jeff Vince
2 3 1 4 5
2 5 3 4 1
4 1 2 5 3
5 3 2 4 1
1 4 2 5 3
5 3 4 1 2

5
Vince Bliss
Theory McMahon
Hunter Theory
Stephanie Jeff
Lita John
5 2 3 4 1
3 2 5 1 4
5 4 3 1 2
4 3 5 1 2
2 4 5 1 3

3
Doe Doe
Stephanie Morgan
Theory Cena
3 1 2
3 1 2
1 3 2
1 3 2
2 1 3
1 3 2
2 1 3

3
John Alexa
Jim Christian
Jim John
2 1 3
1 3 2
3 2 1
3 1 2
3 2 1
1 2 3

4
Bliss Morgan
McMahon Glenn
Lita Smith
Edge Hunter
3 2 1 4
3 1 4 2
1 2 3 4
3 4 1 2
4 2 1 3
2 4 1 3
4 2 3 1

5
Edge Adam
Glenn Jose
John Christian
Adam Jeff
Edge Glenn
1 5 3 4 2
2 4 3 5 1
5 3 4 2 1
2 3 1 5 4
5 2 1 4 3

5
Adam Adam
Jeff Doe
Liv Adam
Morgan John
Lita Jim
5 1 4 2 3
4 3 1 5 2
3 2 5 1 4
2 3 1 4 5
2 1 3 5 4
